8.66555046535e-06
8.58725412654e-06
9.87930195558e-06
1.21016529179e-05
1.14587205803e-05
1.08971183806e-05
1.07156675921e-05
1.07208638529e-05
1.11748886462e-05
9.83325843853e-06
1.04511534601e-05
1.04188845698e-05
8.01465660946e-06
1.00142457659e-05
8.79009856007e-06
8.32496482254e-06
1.07163933052e-05
1.1269889777e-05
9.59397424831e-06
1.17427268506e-05
1.19764821298e-05
1.0956203298e-05
1.07892300135e-05
1.13932180706e-05
1.15107969445e-05
9.83835751061e-06
9.1287858368e-06
8.44423579967e-06
5.84394138981e-06
8.1472815952e-06
6.61306124198e-06
7.9772066638e-06
8.84504073683e-06
7.76815218413e-06
9.50093871403e-06
1.04322767457e-05
1.00171653969e-05
8.42996883502e-06
6.97183420212e-06
7.85052598653e-06
8.65918130927e-06
9.56796457869e-06
1.02258113447e-05
7.77814431091e-06
8.59068296588e-06
8.49026271946e-06
4.85797050681e-06
4.69777978691e-06
7.26290819659e-06
5.58961684099e-06
8.00042473485e-06
8.99695474779e-06
1.06002054016e-05
1.05145947329e-05
9.12713452334e-06
7.50314097735e-06
9.13060357642e-06
7.26990554993e-06
9.25035033676e-06
9.50744572371e-06
9.95725467217e-06
1.02092850375e-05
6.04883494086e-06
7.22273193095e-06
8.94821554799e-06
8.33267734898e-06
1.07719572553e-05
1.14086171569e-05
1.10913406027e-05
1.09709587849e-05
1.0027750618e-05
9.62272760567e-06
9.02714664792e-06
9.04431978117e-06
1.09821935436e-05
9.40659797595e-06
1.10283810973e-05
9.88218367639e-06
9.5503790019e-06
9.83106658696e-06
9.98976696075e-06
9.98695263055e-06
1.17624912929e-05
1.05706761736e-05
1.01249167195e-05
1.01211340742e-05
9.01632332072e-06
8.6162395717e-06
8.14850735242e-06
9.13959822735e-06
1.06577476649e-05
8.77171088559e-06
8.49519227145e-06
1.02624222328e-05
8.26496477549e-06
8.23293318637e-06
8.86467053861e-06
8.51650418648e-06
1.0406366294e-05
1.06440850147e-05
1.09864883184e-05
1.12430559211e-05
1.03321587045e-05
1.05577409626e-05
9.58003823492e-06
9.28821125e-06
1.00638773308e-05
1.16844935604e-05
1.14844416619e-05
1.19995687127e-05
1.10272109044e-05
9.95824779808e-06
8.04423773259e-06
6.4638779651e-06
7.89843071311e-06
6.64336194879e-06
9.41755114125e-06
1.00324290841e-05
9.54648569589e-06
7.06495663266e-06
5.52934492279e-06
5.86781760459e-06
8.17097118252e-06
8.88670372779e-06
9.29267607615e-06
1.00888277655e-05
1.08207583103e-05
9.09354137259e-06
6.71811949929e-06
7.18708764885e-06
5.35640534047e-06
5.32868010555e-06
5.48660447225e-06
6.96479579474e-06
1.05279504194e-05
1.07955700153e-05
1.01893929477e-05
1.13310374308e-05
6.4372772104e-06
6.37804889777e-06
1.01845943428e-05
9.6097725265e-06
1.11799918586e-05
1.10345766169e-05
2.19307527109e-06
4.38061649631e-06
1.21420674074e-05
1.20818504817e-05
1.0957705752e-05
1.13533692575e-05
9.61101523063e-06
9.84732589756e-06
8.11845985588e-06
8.26692380618e-06
5.79859789108e-06
4.83867346118e-06
3.6483173712e-06
1.82262071966e-06
6.14582446793e-06
4.51049268187e-06
8.09671153483e-06
9.04307964503e-06
9.79310733891e-06
1.17760381483e-05
1.07497011193e-05
1.14184625275e-05
1.1520608036e-05
1.20581219083e-05
1.19718506601e-05
1.11943116493e-05
1.09080031912e-05
1.12421446344e-05
1.01499110995e-05
9.81935526343e-06
1.20154290045e-05
1.21511127039e-05
1.16964295614e-05
1.27361598178e-05
5.58290211494e-06
5.93463737662e-06
6.71203444231e-06
7.69987851807e-06
9.99922893978e-06
1.03363620483e-05
9.43901848899e-06
7.54444832948e-06
8.43703250747e-06
6.62380904278e-06
4.36879566445e-06
4.28952770094e-06
5.63797997447e-06
5.22777132544e-06
4.45133766943e-06
4.89966379001e-06
8.79217355723e-06
7.66444302977e-06
7.8578632971e-06
8.35457609877e-06
6.62730146231e-06
7.20571054008e-06
1.01080670011e-05
8.91477532667e-06
5.42847454485e-06
4.74634747756e-06
9.38604008419e-06
9.20641452493e-06
3.29577195117e-06
2.94863684167e-06
9.07506638611e-06
8.72662630562e-06
1.11266679202e-05
1.15413537743e-05
1.21764336534e-05
5.11595398852e-06
1.89052198082e-06
3.05260780687e-06
4.38176191718e-06
4.74029802121e-06
1.12110128007e-05
1.18815294007e-05
3.71278891262e-06
4.17447296581e-06
8.23886807679e-06
8.25769478118e-06
1.06354650946e-05
1.05616714127e-05
1.2268819516e-05
1.14869629703e-05
1.01769576528e-05
1.03546891058e-05
9.56533441207e-06
1.05440331166e-05
1.24722044917e-05
1.18066978267e-05
5.44716592061e-06
4.26008121257e-06
8.19386700535e-06
9.05405406293e-06
1.22086362049e-05
3.7966811114e-06
1.0623737632e-05
1.02296645861e-05
1.08902958005e-05
1.14253966677e-05
1.00966163839e-05
1.11417562999e-05
1.06124742678e-05
1.05105512289e-05
1.10860798877e-05
1.1204064374e-05
1.0686998282e-05
9.47618206138e-06
6.26397385469e-06
1.29955182547e-05
1.07295956733e-05
1.02506684393e-05
1.17773498355e-05
1.09758053346e-05
8.42883258196e-06
7.62540193756e-06
5.8169899987e-06
1.36738573944e-05
1.07364430643e-05
1.09180569411e-05
1.02593049979e-05
1.02038424046e-05
1.08871083434e-05
1.08124911849e-05
1.0140996883e-05
1.00713810377e-05
1.07258484557e-05
1.19074436374e-05
1.14061857753e-05
1.19566065776e-05
1.06703259555e-05
1.10170916732e-05
7.72663019998e-06
7.99389177967e-06
9.30502467805e-06
8.56633901482e-06
8.77266653253e-06
8.56860390977e-06
6.97191366769e-06
8.67355157715e-06
1.11005879329e-05
1.08271947697e-05
9.55865506324e-06
1.02770429401e-05
1.10476533486e-05
1.12562816552e-05
9.7860127766e-06
1.00571307632e-05
1.0303411412e-05
1.07219780994e-05
1.17872052521e-05
1.19943788101e-05
9.94545922807e-06
1.04773444475e-05
1.04305336763e-05
1.079432116e-05
9.10652258273e-06
8.76161897316e-06
1.10552134846e-05
1.11994277164e-05
8.71458712349e-06
9.30895948825e-06
5.76756964257e-06
5.07913789046e-06
1.05605121128e-05
1.09871906684e-05
8.78509789526e-06
9.24232355886e-06
9.83195937887e-06
9.94270180145e-06
6.93792143239e-06
8.50629518785e-06
1.06203640663e-05
9.85504101806e-06
1.12533487529e-05
1.14538877776e-05
1.09535145485e-05
1.00262857502e-05
1.20377689402e-05
1.23032410447e-05
1.02708373986e-05
1.0950588683e-05
1.07710119117e-05
1.06364444916e-05
1.13365271675e-05
1.10698005339e-05
1.1100215478e-05
1.00906714296e-05
1.15145375505e-05
1.07092226199e-05
1.03422025739e-05
9.56103483371e-06
1.06905237856e-05
1.11031419251e-05
9.00562443983e-06
8.06033327304e-06
7.11752637557e-06
6.42913324915e-06
6.53908252852e-06
6.33489662995e-06
6.65129910501e-06
7.80786765543e-06
9.32111739018e-06
9.85628339345e-06
1.01570624352e-05
1.02226077613e-05
6.4866825427e-06
6.10848764476e-06
8.44777422292e-06
8.89318563812e-06
9.7248924237e-06
1.03080912489e-05
1.05275691805e-05
1.02493187885e-05
9.78059397607e-06
1.05152145131e-05
6.25229876612e-06
5.95046082967e-06
1.036857712e-05
1.0398097558e-05
8.68721095192e-06
9.2814607096e-06
1.1156496195e-05
1.10840906108e-05
9.38485356232e-06
9.30155959109e-06
1.04615089881e-05
9.68665841387e-06
9.7186811157e-06
1.015497377e-05
1.11651998108e-05
1.11320019438e-05
1.19387138853e-05
1.09496504179e-05
1.05477458245e-05
1.06142990041e-05
1.0401910242e-05
1.03258579162e-05
1.11044155262e-05
1.17049197464e-05
1.11701837317e-05
1.12673239793e-05
9.99976945185e-06
1.03641614894e-05
1.05524075268e-05
9.63147924044e-06
1.01125614432e-05
9.3445979821e-06
8.95271603756e-06
8.21540211187e-06
6.57528298004e-06
6.66854125939e-06
6.20305541043e-06
7.45390980109e-06
1.046063863e-05
1.01795706167e-05
9.49631686389e-06
9.8415385368e-06
1.12399472133e-05
1.1283303836e-05
9.20594442149e-06
7.6430213306e-06
7.44505051822e-06
7.92661479348e-06
6.44462126358e-06
6.44902343643e-06
8.98991975021e-06
8.76014634208e-06
1.09239727999e-05
1.13826862462e-05
8.39334134981e-06
7.34122274703e-06
8.31194057756e-06
9.50137190244e-06
1.11444656405e-05
1.04212217491e-05
6.37225060588e-06
6.33872954319e-06
6.43586148084e-06
5.84040269373e-06
5.17123218582e-06
5.52527655695e-06
8.45452708204e-06
8.50958637984e-06
5.48114992542e-06
5.45527956443e-06
4.06062348644e-06
5.13539255177e-06
7.85621677493e-06
7.50495597112e-06
2.52311755603e-06
3.6634885237e-06
7.6754210508e-06
7.45456546238e-06
9.03413036121e-06
9.87570085194e-06
1.13239167862e-05
1.0836037121e-05
9.68766736077e-06
8.97036364028e-06
1.03181257982e-05
7.99368895107e-06
9.28818091019e-06
9.36578763752e-06
6.34914632508e-06
6.03616402803e-06
3.82442654458e-06
3.18578891734e-06
7.92968350502e-06
6.72394092149e-06
7.72731096807e-06
7.76199971601e-06
1.08752462774e-05
1.0677745447e-05
1.12261857189e-05
1.03804068241e-05
9.51655502717e-06
9.03133178656e-06
9.52260670799e-06
9.74602844769e-06
1.002871494e-05
1.05708302782e-05
8.96085435898e-06
8.29755533836e-06
8.05513488432e-06
8.23273800439e-06
7.00867137666e-06
6.69522523272e-06
8.59178073525e-06
7.68656740365e-06
9.82969726459e-06
1.04319453109e-05
9.58109151419e-06
9.0598753543e-06
8.49204145109e-06
7.69421728386e-06
9.11042516661e-06
9.6475235664e-06
7.345655004e-06
8.12946017585e-06
8.94171761956e-06
8.26779324085e-06
7.37107164095e-06
7.0939350841e-06
9.01824619515e-06
9.51090411841e-06
8.69302473105e-06
8.57660622915e-06
1.07690409302e-05
1.06714477379e-05
1.03598496036e-05
1.0258941216e-05
6.38637530376e-06
4.50295070121e-06
4.81482024788e-06
5.47494737477e-06
1.02941152561e-05
9.97438289955e-06
9.46760615281e-06
9.51171045261e-06
7.53093373635e-06
7.6973162922e-06
1.15451147564e-05
1.18300601052e-05
1.1292001687e-05
1.1096364245e-05
8.8644660135e-06
9.48968809711e-06
9.43188907428e-06
9.86343776638e-06
1.01405039119e-05
9.85254777629e-06
1.07723738907e-05
9.48051028504e-06
9.83331395076e-06
9.12390765415e-06
7.6962931594e-06
7.22211440797e-06
7.26000760467e-06
8.27437168036e-06
1.00304451808e-05
9.4529272007e-06
9.48187529235e-06
9.89127908576e-06
1.03144383791e-05
9.23174929722e-06
8.8225454223e-06
9.48124331157e-06
4.89282396078e-06
4.90081089806e-06
2.46641900465e-06
1.35245401563e-06
8.00147454373e-06
8.92891060665e-06
1.07410557035e-05
1.0725619533e-05
7.60373023194e-06
7.65005254369e-06
1.12140037818e-05
1.0840804801e-05
9.09577416473e-06
9.91040839323e-06
1.04691655688e-05
9.09666619071e-06
8.6547561795e-06
8.97211771359e-06
8.94435567515e-06
8.77130710492e-06
8.09089465526e-06
7.86573483734e-06
5.78204769576e-06
6.87796190007e-06
7.98960112115e-06
8.67845537101e-06
9.36284221101e-06
9.34361778885e-06
9.012053681e-06
8.41182467293e-06
8.18575633357e-06
8.07630819582e-06
4.37893526492e-06
5.09713034361e-06
5.54807611817e-06
7.35678188812e-06
9.07643178384e-06
8.51983276143e-06
8.35611033074e-06
9.77899353711e-06
8.54724975213e-06
7.57688763619e-06
7.4833594062e-06
6.68856472204e-06
6.94609326599e-06
7.58931060403e-06
9.77262311893e-06
9.79880742807e-06
7.93766871399e-06
7.80642037547e-06
7.81683916645e-06
7.94153059677e-06
1.08581319574e-05
1.0899765778e-05
6.08897574939e-06
5.08465195694e-06
6.77199869441e-06
6.05535764376e-06
7.93907520113e-06
8.0395286485e-06
1.04022111162e-05
9.00464096791e-06
1.11429467202e-05
9.92478826221e-06
1.10018884201e-05
1.18703939389e-05
1.16301230711e-05
1.20590565639e-05
1.23334905753e-05
1.1988663974e-05
5.73686100451e-06
1.07306109061e-05
8.90671764857e-06
7.05661177098e-06
1.01074452757e-05
1.03648442568e-05
6.0218310446e-06
6.87382337746e-06
7.89101846346e-06
8.56093270823e-06
4.52667333878e-06
2.19014323297e-06
3.45235639364e-06
6.10671186189e-06
1.71557562504e-06
3.30916009587e-06
4.89029564255e-06
6.73848741586e-06
5.60304864239e-06
5.58408073906e-06
9.55454750451e-06
8.17511694391e-06
7.24326567024e-06
7.84609922265e-06
1.0746918182e-05
1.00166299031e-05
9.54110797915e-06
8.56593006252e-06
9.40540897501e-06
8.9138837468e-06
7.27331524176e-06
8.04778702536e-06
9.50245511839e-06
1.04086413181e-05
1.04479653027e-05
1.02037162274e-05
1.10071433776e-05
1.08083461389e-05
1.1383041314e-05
1.04827562163e-05
1.02088248612e-05
8.15103835891e-06
8.29830836262e-07
6.90106596379e-07
4.46739914342e-06
4.85614434826e-06
7.85900561476e-06
8.79736505206e-06
9.24687782161e-06
9.60012333655e-06
1.03690623015e-05
9.94265799926e-06
1.10228636129e-05
1.13299199637e-05
1.10808131124e-05
1.19970446472e-05
1.09934576125e-05
1.12922163918e-05
1.09733448331e-05
1.0269938236e-05
9.58098583948e-06
9.70727273144e-06
9.92106575116e-06
1.05873218128e-05
9.55977417522e-06
1.05628618062e-05
1.22459682656e-05
1.20638824378e-05
3.19620035962e-06
2.56500232483e-06
7.13981903253e-06
7.81540985369e-06
1.12092689763e-05
1.12954620884e-05
5.47384303688e-06
5.92274005324e-06
5.6228561966e-06
5.88680232781e-06
3.67223391269e-06
2.9319465807e-06
8.79131503955e-06
9.00981539399e-06
9.72183184945e-06
1.06920684827e-05
5.63650584764e-06
5.8521025703e-06
7.01680454701e-06
6.45360404845e-06
5.40980157102e-06
6.54315997836e-06
7.7867533018e-06
9.12145477843e-06
9.41857903136e-06
1.01876401184e-05
8.05506602608e-06
9.10039325939e-06
1.36375258749e-06
4.45080610607e-07
6.95553542757e-06
8.66542062848e-06
3.63049917038e-06
5.88013108018e-06
6.97586965842e-06
7.74964626064e-06
8.12337854932e-06
8.40944634117e-06
5.12497866342e-06
4.17579363744e-06
1.82376952239e-06
1.9836178745e-06
5.96535022028e-06
5.38061527614e-06
6.60369540737e-06
7.74648570259e-06
6.29251427173e-06
6.38171025595e-06
2.52700233808e-06
1.00768184514e-06
6.04532525588e-06
6.87042518991e-06
8.00778589179e-06
8.51878692383e-06
8.26083626335e-06
7.08495308475e-06
6.18795344934e-06
6.75471897113e-06
5.95081884493e-06
3.14572469142e-06
7.04401960493e-06
8.54497822701e-06
6.95613868532e-06
7.5293279458e-06
7.44008724821e-06
6.98382031876e-06
5.40400691531e-06
5.34977729633e-06
3.24241655645e-06
4.60870520375e-06
3.32841158983e-06
7.17840078485e-06
7.27050530207e-06
9.406892427e-06
6.90599323149e-06
7.52904364555e-06
9.78480490342e-06
8.79400092943e-06
6.59276678748e-06
6.61960084499e-06
9.8353187466e-06
8.81010495394e-06
1.02255460343e-05
8.80026078336e-06
1.03701948976e-05
9.27548214469e-06
7.72507564557e-06
8.65251911423e-06
7.5999247842e-06
1.03200809804e-05
7.7352479727e-06
7.92849406588e-06
1.28522519923e-05
1.23522754205e-05
1.06267020852e-05
1.00735401646e-05
1.03662948656e-05
1.08418364978e-05
6.5594464326e-06
1.0682212673e-05
9.88526867843e-06
1.07698730008e-05
9.62800907801e-06
1.04930325168e-05
1.03791635847e-05
1.03344774467e-05
1.13707660063e-05
9.7953870292e-06
1.18142251103e-05
1.16955658281e-05
1.23784684592e-06
2.10346520099e-06
6.63658043738e-07
8.89013983858e-08
5.7516237862e-07
1.1676770307e-06
7.50492749084e-06
1.09150023937e-05
1.15805639688e-05
1.1397550499e-05
1.15099938821e-05
1.1285385345e-05
2.47741895281e-06
3.60758477523e-06
3.33694228378e-06
7.273188476e-06
9.34290381309e-06
1.0985255103e-05
1.16758667001e-05
1.24777323983e-05
1.09186422808e-05
1.13856293708e-05
1.11083918307e-05
1.01751487489e-05
1.10233008483e-05
1.14376649393e-05
1.09476638113e-05
9.96212285309e-06
1.11456044432e-05
9.64739996973e-06
1.051449211e-05
1.02550614862e-05
1.035255557e-05
1.04712357261e-05
1.11747467705e-05
1.15871966627e-05
1.01666439188e-05
1.06972903932e-05
7.54775383738e-06
6.87060629228e-06
1.16554890241e-05
1.19354459498e-05
1.15889444204e-05
1.193357371e-05
1.1157717418e-05
1.12526363036e-05
1.09355430301e-05
9.66487087908e-06
1.12705783514e-05
1.12695590643e-05
1.0372643959e-05
1.01709800889e-05
1.13598917528e-05
1.07150416929e-05
1.11356366754e-05
1.06238659692e-05
1.01004549083e-05
9.84861069544e-06
9.0337523478e-06
1.00293191857e-05
8.76200189322e-06
9.43930287098e-06
1.13931187714e-05
9.77415504089e-06
9.53074445549e-06
8.84408996553e-06
1.06624113835e-05
9.86775140313e-06
1.11985789588e-05
1.07076592992e-05
1.12044974068e-05
1.12333942958e-05
1.24038227677e-05
1.06558175715e-05
1.07488438341e-05
1.13734699682e-05
1.05073262126e-05
9.41876913774e-06
1.10965028434e-05
1.08799102958e-05
1.11074265161e-05
1.09354854617e-05
1.11285444317e-05
1.23069287365e-05
9.77395529068e-06
1.16793099552e-05
9.99198425266e-06
9.43636086264e-06
9.33588384351e-06
1.09815948557e-05
1.09903111721e-05
1.04308043791e-05
9.78754115461e-06
1.00923524551e-05
1.14491193088e-05
1.05540053336e-05
1.06465141123e-05
9.88061330038e-06
1.06889067699e-05
1.07964592995e-05
1.20914354437e-05
1.18614200832e-05
1.1579583019e-05
1.06653777882e-05
1.16918973136e-05
1.10696528433e-05
1.11006114861e-05
1.14947367768e-05
1.11621803951e-05
1.19817911617e-05
1.14089059265e-05
1.15960934925e-05
2.04073592772e-07
1.4266818339e-06
6.6236341125e-06
6.23545814808e-06
7.93878097809e-07
7.15212724737e-07
1.07318967326e-05
1.04005273851e-05
1.10475549568e-05
1.08613214187e-05
1.13609494783e-05
1.16300899558e-05
1.15448768305e-05
1.12839664475e-05
1.16572551403e-05
1.22672631994e-05
1.11209261238e-05
1.14312770169e-05
1.07524576531e-05
1.06689953308e-05
1.21275715207e-05
1.23506490548e-05
1.21502450159e-05
1.27011755804e-05
1.29365858061e-05
1.27168235526e-05
1.64776621313e-06
2.83562222011e-07
1.74743271301e-06
1.15349613018e-06
1.99336882921e-07
2.02234928015e-08
7.91247113752e-07
1.61186213814e-06
1.20074683986e-05
1.18191524903e-05
1.19709201314e-05
1.1530531912e-05
1.1738960997e-05
1.14433181014e-05
1.10660042773e-05
1.1299265326e-05
1.10444035817e-05
1.06874668078e-05
9.57766885946e-06
9.49692513145e-06
1.09027871108e-05
1.10097756309e-05
1.19806734883e-05
1.2523104783e-05
1.07934962779e-05
1.11079060549e-05
1.03765294914e-05
1.00465646115e-05
1.09181919031e-05
1.10510534452e-05
1.19856483594e-05
1.18591356157e-05
1.06174622439e-05
9.85170840276e-06
1.07299703517e-05
1.06177950781e-05
1.03053767487e-05
1.16377579138e-05
1.08747097395e-05
1.15918767347e-05
1.22450206282e-05
1.14489581224e-05
1.08430031626e-05
1.2199539413e-05
1.05730057605e-05
1.07332366455e-05
1.26557745337e-05
1.15808507965e-05
1.14314212206e-05
1.10353670081e-05
1.1457243066e-05
1.13783950344e-05
1.10525803812e-05
1.11476078144e-05
1.12145106995e-05
1.10280966969e-05
1.086753642e-05
1.05305030472e-05
1.01256210424e-05
8.65428993179e-06
1.02588714195e-05
1.06533040183e-05
1.18839403467e-05
1.14531739267e-05
1.28017608538e-05
1.2577582092e-05
1.27299189596e-05
1.25849706405e-05
1.21562567313e-05
1.21768130148e-05
1.27182494073e-05
1.18923927771e-05
4.60946652421e-08
9.26981150158e-07
2.36223476044e-06
1.24838192788e-05
1.26225238901e-05
3.30781114222e-08
6.4711459609e-07
5.22490893666e-07
1.19600872606e-05
1.17915701917e-05
1.12190704728e-05
1.15361336907e-05
1.19844492639e-05
1.18948491225e-05
1.2315714937e-05
1.11705825683e-05
1.09103654165e-05
1.08405758417e-05
1.03023419009e-05
1.08970067297e-05
1.08917782228e-05
1.19315220538e-05
1.09713406389e-05
1.22969172668e-05
1.19337070992e-05
1.20913488702e-05
1.2080683549e-05
1.18212312242e-05
1.15647812592e-05
1.20116753311e-05
1.13236500851e-05
1.11748564637e-05
1.19636112598e-05
1.17328119894e-05
4.90685645305e-06
4.16148310021e-06
3.57732073533e-06
1.19322759186e-05
1.26128949216e-05
1.23709105127e-05
1.17800949321e-05
1.13857208192e-05
1.08273665666e-05
1.0853779781e-05
1.05851019797e-05
1.12656179106e-05
1.10853335402e-05
1.06942713164e-05
1.23942405522e-05
1.15678333333e-05
1.09628722879e-05
1.14563895205e-05
1.20223425774e-05
1.21703764179e-05
1.13417584553e-05
1.07756907583e-05
9.73965631841e-06
1.08191438344e-05
1.23307126458e-05
1.24443322264e-05
1.19411566542e-05
1.16005302025e-05
1.0667098742e-05
1.12359659477e-05
1.05492931778e-05
1.11488476491e-05
1.17532531537e-05
1.00869952682e-05
9.7938220576e-06
1.04986085795e-05
1.09897834806e-05
1.17898620704e-05
1.07720897904e-05
1.18506607159e-05
1.05058452582e-05
1.03918787038e-05
1.0068909218e-05
9.91445460896e-06
1.09407982621e-05
9.97366073071e-06
1.03187103826e-05
1.12967211211e-05
1.0808334779e-05
1.07796171771e-05
1.1137735338e-05
1.11312806646e-05
1.13215737769e-05
1.03171878575e-05
1.10888736616e-05
1.20549891314e-05
1.18205844454e-05
1.14087931487e-05
1.18898962697e-05
1.17592855332e-05
1.08644553165e-05
1.14719083945e-05
1.03879787461e-05
1.09365295256e-05
1.03902425751e-05
1.05221416318e-05
9.47962671361e-06
1.05356079768e-05
9.4549073643e-06
9.18640163797e-06
1.10764133946e-05
1.15628311328e-05
1.11298798705e-05
9.90877709335e-06
1.08995527467e-05
1.13055445047e-05
1.20962048226e-05
1.14923735426e-05
1.14166027516e-05
1.14502580861e-05
1.2053580897e-05
1.10629762392e-05
1.04260064788e-05
1.12419401623e-05
1.11542829907e-05
1.16627785665e-05
1.13081445106e-05
1.13992152164e-05
1.07132640086e-05
1.02028039325e-05
1.01553869457e-05
9.84586962705e-06
9.38682187475e-06
9.09479155962e-06
1.13832937033e-05
1.16201053795e-05
1.159186291e-05
1.18460512023e-05
1.14329192515e-05
1.1366615783e-05
1.04687491412e-05
9.58829824016e-06
1.03947872086e-05
1.14221850773e-05
1.11972047702e-05
1.15847008778e-05
1.22903867499e-05
1.22874757996e-05
1.18376679093e-05
1.19276303163e-05
1.08564134037e-05
1.04930172054e-05
1.10329573766e-05
9.54950171424e-06
1.15108199468e-05
1.16030339887e-05
1.14884042157e-05
1.16270058432e-05
1.12764043217e-05
1.11903660123e-05
1.10847408058e-05
1.04574413353e-05
1.13051178199e-05
1.19646103458e-05
1.10081525071e-05
1.05596072059e-05
1.06560719405e-05
1.22162933941e-05
1.19436878327e-05
1.18300636989e-05
1.14830447046e-05
1.13314887393e-05
1.13743379615e-05
1.14241615263e-05
1.14092905289e-05
1.01675968095e-05
1.02497612891e-05
1.08723271446e-05
1.24579469515e-05
1.17920833093e-05
1.04509576204e-05
1.11396417944e-05
1.17159737813e-05
1.21735867037e-05
1.12978501017e-05
1.17790786068e-05
1.01206391881e-05
1.10175998212e-05
9.99584239837e-06
1.07517607469e-05
9.81086825534e-06
8.83543927911e-06
1.15004351582e-05
1.10001487669e-05
1.13940871813e-05
1.08247815458e-05
1.12916943165e-05
1.04762463923e-05
9.040522798e-06
1.09189927145e-05
1.11627332664e-05
9.88648578631e-06
9.0973389547e-06
9.9656202577e-06
9.855607943e-06
9.85856887946e-06
1.0260284487e-05
1.0435753003e-05
1.13764103531e-05
1.17664140877e-05
1.17079152324e-05
1.11746934491e-05
9.30333807503e-06
1.05699970181e-05
1.0796653185e-05
1.11671337446e-05
1.12489816282e-05
1.11513392229e-05
1.22866825787e-05
1.10762393322e-05
1.02263309375e-05
1.16043802335e-05
1.22450294778e-05
1.04171164225e-05
9.16681421391e-06
1.14810459793e-05
1.05478167879e-05
1.10210190843e-05
1.18563138261e-05
1.14385080644e-05
1.19923092559e-05
1.18259862915e-05
1.14814621392e-05
1.10951154634e-05
1.09420929579e-05
1.03838427794e-05
1.15238198317e-05
1.1845745529e-05
1.21636068554e-05
1.19019503739e-05
1.2029742511e-05
1.15201605504e-05
1.22553483562e-05
1.15830737037e-05
1.09594560068e-05
1.14310922484e-05
1.00799947605e-05
1.06520450404e-05
1.0901154555e-05
9.59198121189e-06
1.01602141918e-05
1.15992166541e-05
1.23467604875e-05
1.2455062445e-05
1.17234109904e-05
1.18347744023e-05
1.16192962776e-05
1.23056088219e-05
1.16609926552e-05
1.27424211239e-05
1.18606836462e-05
1.18810188461e-05
9.61729945539e-06
9.47913848933e-06
1.03663540388e-05
1.14024090881e-05
1.21569715736e-05
1.24177091144e-05
1.21867329631e-05
1.08001136093e-05
1.19656829767e-05
1.16266017568e-05
1.0801382809e-05
9.81070065319e-06
1.01830121788e-05
1.12903230983e-05
1.22700574476e-05
1.17216919909e-05
1.20802333773e-05
1.26582306351e-05
1.15864712811e-05
1.10461269863e-05
1.12853418733e-05
1.22654510719e-05
1.17861479787e-05
1.29007628129e-05
1.15903969512e-05
1.24410736937e-05
1.18157681772e-05
1.18013418821e-05
1.19301231093e-05
1.00927594684e-05
7.0585046856e-06
3.34473508382e-06
5.96302498469e-06
8.11321687849e-06
8.32820817423e-06
9.15568519446e-06
9.07498950786e-06
8.58840456908e-06
4.71672738824e-06
4.52365515386e-06
1.11875681868e-05
1.17836628397e-05
1.27004760694e-05
1.19981306235e-05
8.04936336435e-06
8.15726992039e-06
7.93788656291e-06
5.92077216476e-06
6.82405750469e-06
5.6165136922e-06
5.34497629434e-06
5.59453612741e-06
8.36316498313e-06
5.40340004484e-06
5.33261035703e-06
8.26450064763e-06
9.6060158603e-06
5.88389253392e-06
1.16130032853e-05
5.32827343564e-06
1.21984418551e-05
1.20595048426e-05
1.19480644249e-05
1.22886938864e-05
1.52843884131e-06
6.47381122631e-06
9.10528872823e-06
1.02964086977e-05
1.02531089172e-05
9.06814535826e-06
1.26184464438e-05
1.20589380492e-05
9.02833217175e-06
7.8719851073e-06
4.12830218097e-06
2.2155072655e-06
4.3460489991e-06
5.91963347388e-06
5.85556028204e-06
6.34068230909e-06
5.0021433052e-06
3.62904782615e-06
6.68749535548e-06
3.74259558804e-06
5.71961924532e-06
8.09920880933e-06
3.11450272015e-06
5.15798781819e-06
8.52305432549e-06
7.11098119216e-06
1.99502211827e-06
5.84745391219e-06
7.67006556156e-06
3.88398466126e-06
4.95397249069e-06
1.70244396523e-06
2.77652687335e-08
9.42433625853e-06
9.20319318296e-06
1.09883012348e-05
1.02761238363e-05
1.06260359742e-05
9.88061510705e-06
1.6285403786e-06
5.85345628699e-06
3.95227310249e-06
4.36819397723e-06
3.8806136479e-06
1.00845693e-05
6.84618718976e-06
7.91595891159e-06
7.60827372793e-06
6.74107772827e-06
8.24092602866e-06
1.18252896059e-05
1.19943166309e-05
1.23323545445e-05
7.46876872163e-06
8.61973091911e-06
8.5150131646e-06
2.25311840399e-06
4.81689821384e-06
8.71010155707e-06
9.71100997578e-06
8.73354726634e-06
9.43486162439e-06
6.7340524192e-06
8.36075599295e-06
8.75186704234e-06
9.04281456912e-06
1.19489597026e-05
1.11106505835e-05
7.79379640465e-06
6.15050285173e-06
6.78519202177e-06
1.32869672085e-06
4.74343719453e-06
8.21222863629e-06
9.74958671621e-06
9.20744163068e-06
6.06490126436e-06
7.62108328437e-06
4.20800508405e-06
8.13412205026e-06
8.67246826692e-06
8.74782763945e-06
4.98503532201e-06
6.30763027152e-06
6.65823165752e-06
8.28160290144e-06
9.67433935906e-06
1.01454946713e-05
9.99727618797e-06
9.33138896826e-06
7.48426815218e-06
7.62862783448e-06
7.41667055069e-06
6.18565455043e-06
9.36615556507e-06
9.94741878725e-06
1.13694852595e-05
9.58403661659e-06
8.52714932816e-06
8.28108743702e-06
8.00087516436e-06
5.15278392114e-06
3.01408674361e-06
3.41571619904e-06
6.43573257331e-06
7.89098334211e-06
7.2974936778e-06
8.05020529359e-06
6.84537367267e-06
7.00855738655e-06
7.63655217751e-06
9.54380681523e-06
9.05222936777e-06
7.43617979892e-06
5.83069967561e-06
8.52559252978e-06
9.11862899212e-06
9.09978594059e-06
7.35671735947e-06
7.71076588324e-06
6.39689362223e-06
5.05336840234e-06
8.278205884e-06
9.12460727988e-06
8.98414132702e-06
6.80765204697e-06
8.72361220811e-06
6.23514501929e-06
9.69047525019e-06
9.32788048204e-06
9.35213567856e-06
8.7906349917e-06
9.09107557732e-06
1.01029690319e-05
1.00131227795e-05
8.76158223104e-06
9.40933811216e-06
1.8672279444e-06
6.61396265019e-06
1.00306315013e-05
8.78699630169e-06
7.48618739441e-06
5.61061718613e-06
2.92317677858e-06
4.65615427812e-06
4.20620107004e-06
1.86042116233e-06
5.84220133799e-06
6.69472338555e-06
9.70400477276e-06
8.80050835673e-06
6.86303199086e-06
7.68014937875e-06
5.68008969341e-06
2.92451175655e-06
6.37852894197e-06
5.69107243708e-06
1.04907524487e-05
1.00807131907e-05
9.51501753025e-06
6.91947351301e-06
7.47413549288e-06
7.2223725178e-06
8.61252871443e-06
8.89952386493e-06
9.55752925536e-06
1.06903014511e-05
9.77496772384e-06
1.00316356606e-05
1.14989270526e-05
3.48720332886e-06
7.56654067205e-06
6.33747052012e-06
1.0011467633e-05
7.81293743407e-06
9.80430064487e-06
9.54403548744e-06
1.0221420083e-05
1.14044189489e-05
6.66597495865e-06
8.63527974852e-06
9.18083839337e-06
1.02362871973e-05
1.04538339809e-05
9.16233689229e-06
8.36960169072e-06
1.06297954455e-05
8.03712310648e-06
7.91361577314e-06
1.02979947989e-05
9.37033814524e-06
9.97152993669e-06
8.02547971316e-06
7.87710173638e-06
8.30373993076e-06
8.72193112883e-06
5.83596254161e-06
8.80560431927e-06
1.05929707257e-05
9.70224860245e-06
7.49217983657e-06
4.96724652894e-06
1.1692228105e-05
7.9833321388e-06
5.26340863612e-06
8.74706720486e-06
7.95406493071e-06
9.4803396954e-06
7.94887720267e-06
6.78850110972e-06
2.8618331213e-06
5.87110046677e-06
8.32655546002e-06
9.16814389959e-06
8.37250887394e-06
1.05234102352e-05
1.09960830223e-05
1.16309278286e-05
1.11514782611e-05
1.02601982147e-05
9.79227803658e-06
1.04947646733e-05
1.02960808444e-05
1.10684326588e-05
8.64496929191e-06
1.05241502991e-05
1.09638802136e-05
7.18533751398e-06
7.6823315897e-06
9.83982977541e-06
7.71767136304e-06
8.27266413958e-06
9.65937469188e-06
1.00079259609e-05
7.27365526667e-06
9.12878483876e-06
8.68257231702e-06
1.17453515338e-05
6.14739741726e-06
6.74820737344e-06
9.11188092577e-06
8.24138593953e-06
8.26381370983e-06
7.05469761383e-06
9.79278805059e-06
9.47656208947e-06
8.65196126887e-06
9.33869891283e-06
9.82154501667e-06
1.07299876376e-05
1.01643283684e-05
9.12025127744e-06
1.0735845521e-05
1.10724119266e-05
1.17161580366e-05
1.02061501713e-05
9.83786985995e-06
9.89818880182e-06
8.0381191499e-06
9.63670923723e-06
1.08744424822e-05
8.45568786003e-06
6.91102881849e-06
9.52581628492e-06
9.56163742103e-06
3.77302665977e-06
4.02757760361e-06
6.69422801283e-06
6.25379432037e-06
1.33137287913e-05
1.31423213967e-05
1.34098177412e-05
9.90953756569e-06
9.59853845334e-06
9.79079795162e-06
9.85157251834e-06
7.65177013272e-06
2.7576299015e-06
1.00225615509e-05
1.03514454709e-05
1.0722850942e-05
8.75656505731e-06
4.82392071289e-06
9.67740903637e-06
1.08987987288e-05
7.82890696196e-06
6.44002384002e-06
4.21688397823e-06
7.59054437574e-06
9.62407201812e-06
7.84525697637e-06
9.549145391e-06
7.65302259301e-06
8.46918279254e-06
9.11623349651e-06
9.17516105882e-06
1.03074922242e-05
1.06206810857e-05
9.09420944321e-06
8.28553386261e-06
8.4583165562e-06
9.99270263355e-06
1.14743721661e-05
1.05518759359e-05
1.11674961128e-05
1.11668970528e-05
1.10220411812e-05
9.00730486946e-06
9.35866908834e-06
9.65571632528e-06
1.01154036408e-05
1.08069150934e-05
1.20805327574e-05
9.50803419088e-06
9.93250703664e-06
1.03430496896e-05
9.64466197675e-06
9.12621930404e-06
9.09345780066e-06
9.4567025144e-06
1.05332480396e-05
1.05887275537e-05
1.09369596335e-05
1.1229100202e-05
1.0618723046e-05
1.10200846468e-05
1.06457782278e-05
1.06799733577e-05
1.03824233476e-05
9.86778745146e-06
9.95573071687e-06
9.51353942625e-06
1.05016309291e-05
1.04563472498e-05
1.11495539489e-05
1.18572070373e-05
1.0992686935e-05
1.06599078885e-05
1.05336454336e-05
8.62214413678e-06
7.06269382446e-06
8.41445024575e-06
8.42646312436e-06
8.8448580924e-06
7.18682104631e-06
1.04822508688e-05
9.99037222115e-06
8.94117990794e-06
9.25047611384e-06
1.23566015861e-05
1.12229328491e-05
9.1857870571e-06
8.22857574678e-06
3.16013853204e-06
5.28420918999e-06
9.05029405907e-06
9.01731759471e-06
9.19011560951e-06
7.20345329889e-06
7.18323203167e-06
5.32884058429e-06
9.03550378739e-06
5.30930680683e-06
5.41567885999e-06
6.99167246088e-06
4.76645513531e-06
3.89170699713e-06
7.49039700758e-06
8.46579866339e-06
1.05359775801e-05
1.09346617456e-05
1.03673205492e-05
1.05535160252e-05
1.15592542588e-05
1.04951877143e-05
9.37499609002e-06
6.18462690537e-06
8.75208074893e-06
8.81869956923e-06
8.22434263379e-06
8.93985434114e-06
1.11939881736e-05
1.07980442406e-05
1.07913328433e-05
9.93366774917e-06
1.02445810152e-05
8.2223746322e-06
9.92815724408e-06
9.83796294991e-06
9.8189243735e-06
1.06346561844e-05
1.08136661927e-05
1.13768650945e-05
1.11782218524e-05
1.16143262769e-05
1.08620223263e-05
9.79220662955e-06
1.14259319859e-05
1.02179809853e-05
8.16664638544e-06
1.04563845432e-05
1.06031910596e-05
1.04834740581e-05
9.08330810182e-06
1.00029120588e-05
1.16167181758e-05
1.11424275025e-05
1.00500632047e-05
1.06701766871e-05
1.14185013942e-05
1.18999028657e-05
1.1390842646e-05
1.17935897039e-05
4.90418982314e-06
3.18377396301e-06
1.00320267954e-05
9.58093123418e-06
1.02169791251e-05
1.14021550874e-05
1.14397550537e-05
1.07435566834e-05
1.1975143109e-05
1.17748861381e-05
9.62404280757e-06
1.01532066781e-05
1.00816343701e-05
1.06787906715e-05
9.70502801229e-06
1.16250193396e-05
1.16925757975e-05
1.03651089934e-05
1.07119251226e-05
1.09688983945e-05
1.08861947796e-05
1.1348111425e-05
1.19620618857e-05
1.17037923699e-05
1.03875738935e-05
9.89639719567e-06
9.24639143632e-06
8.41779937368e-06
1.00898064524e-05
1.11190078945e-05
9.14675411139e-06
9.06285913039e-06
1.00869414748e-05
1.0378835974e-05
9.99535457254e-06
1.01615983321e-05
9.79994889979e-06
1.10659019765e-05
1.06711813892e-05
1.11506559842e-05
9.51339411836e-06
6.55956614374e-06
9.88687608412e-06
1.06689778856e-05
1.00579885137e-05
1.12395434625e-05
1.03205718911e-05
1.06543082268e-05
9.50261924208e-06
9.80274005893e-06
1.21019837538e-05
1.17486165795e-05
9.26405557047e-06
1.13510763144e-05
1.00803005906e-05
1.10671209398e-05
1.140884819e-05
1.15094995907e-05
9.01500434812e-06
9.49543485138e-06
9.63481067609e-06
1.05022418593e-05
1.12232380706e-05
1.02581982696e-05
9.86522430214e-06
9.42077255869e-06
1.12993685811e-05
1.19453248888e-05
1.14521060979e-05
1.20400395561e-05
9.88456959812e-06
9.27485514254e-06
1.165298718e-05
1.06781214836e-05
1.26696461475e-05
1.20703495503e-05
1.05502877358e-05
1.10895445722e-05
1.11971436311e-05
1.0308332258e-05
1.068025045e-05
1.02941640235e-05
1.04098435984e-05
1.06169822725e-05
1.04313380538e-05
1.14293792545e-05
1.0974277658e-05
1.06642756018e-05
1.05733686017e-05
7.96982963017e-06
1.09610395853e-05
9.92871557267e-06
1.16361849944e-05
1.13045617115e-05
1.07685643504e-05
1.10343128126e-05
1.06857045872e-05
1.20647119765e-05
1.15632419808e-05
1.16111055524e-05
9.96953847839e-06
1.12062213584e-05
1.0236138436e-05
1.09635530476e-05
1.17087014071e-05
1.01804073948e-05
1.16081530658e-05
1.16428306474e-05
8.01558415932e-06
9.50986068272e-06
1.18809215807e-05
9.77560683603e-06
1.07911035728e-05
1.02700108026e-05
1.13026487755e-05
1.15186353115e-05
1.12026686098e-05
1.15152268498e-05
1.05909744096e-05
1.183472596e-05
1.05721378605e-05
1.11858540822e-05
1.0581632169e-05
9.59939311519e-06
9.9734842455e-06
1.02267199485e-05
1.05284390281e-05
1.01177461499e-05
1.00663736982e-05
8.30466384026e-06
8.47661601526e-06
8.27394471863e-06
9.32884559452e-06
1.08834999149e-05
1.14081710652e-05
1.13533818898e-05
1.23432194801e-05
1.21765242344e-05
1.11096328867e-05
1.13792454671e-05
1.28341619752e-05
1.1916280966e-05
9.07570108026e-06
7.20473339861e-06
9.22912112573e-06
8.6782551742e-06
9.53561945501e-06
9.80545250462e-06
1.15451713572e-05
1.04658538262e-05
9.95565620944e-06
1.00663061933e-05
1.01293153099e-05
9.6254650563e-06
1.11907281687e-05
1.2394678338e-05
1.0753051316e-05
1.1078084678e-05
1.2782948526e-05
1.18789187708e-05
1.22123509081e-05
1.20801100325e-05
4.17269553727e-06
5.3448407881e-06
5.25878866729e-06
7.5275300687e-06
7.60579777217e-06
8.18023589994e-06
9.26832246355e-06
9.58963027834e-06
9.9097047721e-06
1.0783221375e-05
1.11270472572e-05
1.10034382137e-05
1.07680524342e-05
1.06882341971e-05
8.10073819698e-06
9.18109702099e-06
8.55284464195e-06
6.81164435467e-06
8.6021433896e-06
9.07566532262e-06
9.1011233376e-06
8.99412833007e-06
1.15949683974e-05
9.97430510968e-06
1.07560132589e-05
1.2632273179e-05
9.89109573194e-06
1.05768782972e-05
1.07041339057e-05
1.05084996094e-05
1.20413751674e-05
1.15352521755e-05
1.12711546505e-05
1.0521145239e-05
1.06268367992e-05
1.08702828486e-05
6.27645960572e-06
1.01204690298e-05
1.05854598956e-05
1.16960888798e-05
1.08317361958e-05
1.10510946022e-05
1.15462194288e-05
1.10130127974e-05
1.13458381438e-05
1.08023959899e-05
1.02347178826e-05
1.01872958514e-05
1.02328782829e-05
1.16183860786e-05
1.18139409565e-05
1.17927876361e-05
1.08227043645e-05
1.09576071146e-05
1.12891408136e-05
1.01670944959e-05
1.18551269596e-05
1.24434449643e-05
1.16165975614e-05
1.24896883629e-05
5.86380082537e-06
7.72532684359e-06
7.32076465304e-06
9.561400135e-06
1.03514250041e-05
9.27791790396e-06
9.71798079042e-06
9.99726632786e-06
1.17894080982e-05
1.11739414941e-05
1.13223198709e-05
1.13522315682e-05
1.13392187406e-05
1.1864403067e-05
1.23006178514e-05
1.27135374844e-05
1.03721572668e-05
0.000122720555615
1.14597715521e-05
1.13745309922e-05
1.08684397918e-05
1.07106419315e-05
1.13934813992e-05
1.16129494016e-05
9.05223871545e-06
5.99793703873e-06
6.46304459214e-06
7.0755501793e-06
1.64385770009e-06
0.000115552670302
3.81419366986e-06
9.27201847063e-06
8.59111189097e-06
8.45803047012e-06
8.4920589839e-06
6.53963167195e-06
1.07432373705e-05
8.91458045096e-06
1.17504482769e-05
1.27363861164e-05
1.22584805881e-05
1.22126727699e-05
1.14110637159e-05
1.1459189505e-05
1.13443623731e-05
1.25921883433e-05
1.1731603494e-05
0.000127605520394
1.01747357882e-05
9.44487155695e-06
1.22504861633e-05
1.26585993635e-05
6.82700222175e-06
7.82075562818e-06
5.65034881918e-06
7.18475675696e-06
1.07848814581e-05
9.38582952034e-06
1.12016527414e-05
1.13132678228e-05
1.15370574609e-05
1.23700756545e-05
1.30836557369e-05
0.000117478581755
1.23697634964e-05
1.18230688227e-05
7.08013035009e-06
9.08482042506e-06
9.71523625934e-06
1.19975815256e-05
9.55168666173e-06
9.53289698809e-06
9.89192670253e-06
1.07971289456e-05
1.19977410429e-05
1.1294805657e-05
1.15268721894e-05
1.14134637635e-05
1.04597946609e-05
0.000103882330658
9.397306093e-06
9.49300447928e-06
7.81375392874e-06
1.01297245777e-05
1.15437800085e-05
1.13831784227e-05
1.08841776234e-05
1.11045292812e-05
1.00781695056e-05
9.56017019251e-06
9.99042734335e-06
9.37311863434e-06
1.01133613919e-05
9.50477289183e-06
1.01672107069e-05
9.45128370719e-06
8.44126809735e-06
0.000121498152278
1.03881412262e-05
8.70854217978e-06
8.39440249563e-06
9.45932531196e-06
1.11445320682e-05
1.06545597496e-05
8.46941603423e-06
7.03493619226e-06
1.02344451553e-05
1.08966121758e-05
9.26424198059e-06
9.54561307898e-06
9.02846953661e-06
0.00012741150506
1.18201262803e-05
1.10420802847e-05
1.11565420504e-05
1.12172228946e-05
1.01640479247e-05
1.10687577565e-05
1.13397607605e-05
1.04705178661e-05
1.03483777611e-05
1.09021526698e-05
1.12940026056e-05
1.09788500162e-05
1.1483434583e-05
1.0686272787e-05
1.0843753808e-05
1.05391750738e-05
8.71733328462e-06
0.000128352111036
8.82005245645e-06
9.96508242432e-06
1.12394896297e-05
1.05833516633e-05
1.17668073324e-05
1.18529420237e-05
1.10963853093e-05
1.1716342293e-05
1.16617786094e-05
9.61302492232e-06
9.46796817081e-06
9.68365431206e-06
1.06158803822e-05
0.000113254435471
1.12865344405e-05
1.092438068e-05
1.07123006951e-05
1.08354331808e-05
9.6275536524e-06
8.88050427749e-06
9.48041880682e-06
1.11170580678e-05
1.16341095937e-05
1.11454172991e-05
1.15979257818e-05
1.1075427425e-05
1.09613631646e-05
1.03259677581e-05
1.10255013875e-05
9.66080216995e-06
9.55800255905e-06
9.53818386857e-06
1.13437544449e-05
1.15553104455e-05
1.15553911985e-05
1.14792057989e-05
1.0768817971e-05
1.08348330079e-05
1.02018794978e-05
9.70948901405e-06
9.41971633411e-06
8.9561189475e-06
9.92648051915e-06
1.04351655665e-05
1.16965591401e-05
9.80134423544e-06
8.93683416165e-06
9.01188109733e-06
8.72904714357e-06
9.70295102062e-06
8.09287428759e-06
1.0370965103e-05
9.93576844612e-06
1.01743298772e-05
9.25111038759e-06
1.02715385771e-05
1.02132512748e-05
1.01219166608e-05
8.5512826726e-06
8.1573567143e-06
8.03439988592e-06
9.02824354819e-06
1.07466708688e-05
1.05998523876e-05
8.88824253992e-06
8.30544040594e-06
6.51446277185e-06
6.23545473597e-06
6.40516458621e-06
6.94272263268e-06
8.20832213155e-06
9.16657694238e-06
9.31558646995e-06
5.6317628963e-06
5.21966702182e-06
5.6111867413e-06
7.36742092837e-06
7.84440889684e-06
9.14534286514e-06
9.06454050696e-06
1.07124892708e-05
1.03676607393e-05
6.53365026935e-06
4.81898332446e-06
1.30680408354e-05
1.32855890081e-05
1.0873522493e-05
1.05389714877e-05
7.03138925208e-06
5.1938435662e-06
7.44630649403e-06
7.17152347425e-06
6.27240203345e-06
8.10968284148e-06
8.86772258187e-06
9.29928741625e-06
1.10322908847e-05
1.00366975964e-05
1.01536743494e-05
1.16142012288e-05
1.16134093536e-05
1.07992479475e-05
9.11839545809e-06
8.78838991804e-06
9.64925353678e-06
9.14536383186e-06
7.83883081729e-06
7.24214134802e-06
6.26453060551e-06
7.87595055859e-06
9.41352005135e-06
7.52790808003e-06
8.51249778294e-06
8.12745130458e-06
3.61702047627e-06
3.50461659234e-06
5.64723193135e-06
2.64477602626e-06
3.08469248781e-06
1.89677555472e-06
8.660770838e-06
9.94972391692e-06
1.01040168689e-05
1.12693982772e-05
1.01635940934e-05
1.08160683469e-05
7.93753668439e-06
5.28236389977e-06
9.09010396665e-06
9.50394654642e-06
9.38509287157e-06
8.05710095074e-06
6.7919095819e-06
7.66241658631e-06
5.10569516913e-06
4.24639200439e-06
3.23551415289e-06
5.21059113992e-06
2.05818680069e-06
5.49850095315e-06
9.30242148733e-06
1.00156290415e-05
8.98803904459e-06
9.0936793586e-06
9.54158527263e-06
1.14509523684e-05
1.16255176099e-05
1.03558723542e-05
9.90515133093e-06
9.79053028366e-06
1.04836185785e-05
1.1127188691e-05
1.13991424501e-05
1.05021515224e-05
1.01516715879e-05
8.22792594227e-06
8.79122485935e-06
1.05397072752e-05
1.2515542855e-05
1.15934807298e-05
1.03934455969e-05
1.0425235827e-05
1.10880489785e-05
1.03622882445e-05
1.09508272992e-05
1.19390506668e-05
1.13668608694e-05
1.13709725318e-05
5.75715980705e-06
6.85331978783e-06
8.94435993892e-06
1.21199675543e-05
8.29676345342e-06
9.38039153982e-06
1.07710409832e-05
1.02311330748e-05
1.03661632684e-05
8.57085260322e-06
1.00844242821e-05
1.12286681317e-05
1.27789390884e-05
1.28752908985e-05
1.3437620366e-05
1.0690718525e-05
1.12078497606e-05
1.13944627617e-05
1.14885448577e-05
9.24207651528e-06
1.11533405939e-05
1.01366647827e-05
1.09727631688e-05
1.10761389035e-05
9.86979714055e-06
1.13612605971e-05
1.13178330962e-05
1.16715763884e-05
1.0814844498e-05
1.07208090234e-05
1.08234320526e-05
1.11585049751e-05
1.101958683e-05
1.09800408429e-05
9.95609617511e-06
1.06654642879e-05
1.06099668412e-05
1.01195177557e-05
1.11657418522e-05
1.16495300014e-05
1.07867273607e-05
1.1182392022e-05
1.14809857966e-05
1.16471802068e-05
7.02539743114e-06
6.73573975383e-06
4.44264313904e-06
7.81612977274e-06
6.23802539484e-06
7.59401909477e-06
1.00520278135e-05
1.14675847773e-05
1.17480529095e-05
1.09258296523e-05
9.94922163612e-06
1.16167542335e-05
9.62894634456e-06
7.4878341709e-06
9.44460095855e-06
1.04138923255e-05
8.71533885039e-06
7.0947191738e-06
8.50791202664e-06
6.09837734038e-06
6.67086720255e-06
6.74455058385e-06
5.2458642262e-06
6.88049148019e-06
9.56453009972e-06
9.95708245939e-06
1.03745107147e-05
9.92759878739e-06
1.0282064471e-05
6.67426631326e-06
9.37584802139e-06
8.78239110256e-06
1.08742504025e-05
1.00804505168e-05
9.86990551108e-06
9.30355526264e-06
9.57290318057e-06
8.21303732361e-06
6.23248531247e-06
3.99996007392e-06
3.85443236292e-06
5.57220335129e-06
3.26626527518e-07
1.20378239186e-05
1.06582523832e-05
1.17489937484e-05
1.15811643579e-05
1.18140315179e-05
1.10695823199e-05
9.63510336835e-06
1.10627222527e-05
1.09470955882e-05
1.23370392901e-05
1.0529453895e-05
9.9109047746e-06
1.16472193891e-05
1.15185056068e-05
9.85233787291e-06
1.06172294356e-05
1.00241723523e-05
1.20291742931e-05
5.11367316195e-06
6.30369264413e-06
5.87161911143e-06
5.1122982466e-06
1.17862352762e-05
1.289813656e-05
1.18652963968e-05
1.3334345632e-05
1.55175705514e-05
1.47028987332e-05
1.33083665521e-05
1.26816591279e-05
1.24380576299e-05
1.40095870317e-05
1.2989503045e-05
1.33477014521e-05
1.2192260218e-05
1.21958677914e-05
1.21363779566e-05
1.30565021324e-05
1.29247005193e-05
1.19407183203e-05
1.21751258571e-05
1.33368662761e-05
1.36009863458e-05
1.38428658711e-05
1.23845031653e-05
1.38404310447e-05
1.2583090212e-05
1.49330983464e-06
4.17127923489e-06
6.97606892308e-07
3.04114167749e-06
1.38570324861e-06
3.15993507061e-08
4.57670288269e-07
1.19563427442e-05
1.35153962128e-05
1.27117239189e-05
1.33307377886e-05
1.31116499226e-05
8.30912119506e-06
7.41877397985e-06
8.12495469672e-06
9.36251586446e-06
1.02457969185e-05
1.02918343267e-05
1.08408972578e-05
6.44951645899e-06
1.25295676008e-05
1.92381012573e-06
4.02791897862e-06
5.51289643115e-06
8.51407034755e-06
8.32940374295e-06
8.3724900498e-06
7.42943786741e-06
1.11016844763e-05
1.12805012617e-05
1.1073100326e-05
1.18699683461e-05
1.12221305327e-05
1.14154213223e-05
1.23894871218e-05
1.21017635021e-05
1.14563242397e-05
2.96414917782e-06
7.6419156279e-06
9.42513956339e-06
8.89944846736e-06
8.33335515033e-06
1.28801361495e-05
1.26698531153e-05
1.30203429872e-05
1.24881258393e-05
1.19133233464e-05
1.31655409164e-05
1.24189177401e-05
1.33636804723e-05
1.33201110254e-05
1.32387577441e-05
1.26898132423e-05
1.30428409819e-05
1.31821210206e-05
1.30578603567e-05
1.27431770744e-05
1.32118208856e-05
1.28344898277e-05
7.55873725549e-08
2.21049248344e-07
1.13027795713e-06
1.30885535761e-05
1.23267214483e-05
1.36699764392e-05
8.76735607672e-06
7.0537791121e-06
8.05922770746e-06
5.42066491518e-06
3.17859035516e-06
6.32678521239e-06
5.96562966916e-06
5.60961689969e-06
4.51145140435e-06
4.70811106982e-06
3.29713451099e-06
8.66294670496e-07
1.02148815212e-06
5.53261185189e-06
4.55275080844e-06
7.79975184285e-06
6.51078032346e-06
4.75386828455e-06
9.00185465167e-06
9.98823237393e-06
9.12211797125e-06
6.37290601226e-06
3.8395800144e-06
3.04193808546e-06
2.18229631282e-06
1.97473226205e-06
6.93373316031e-07
1.29656452746e-05
1.24440510919e-05
1.37738080355e-05
1.34958394879e-05
1.31326643719e-05
9.50826205552e-06
1.06481171306e-05
1.07925126819e-05
7.9528143534e-06
9.24070018169e-06
7.38117497151e-06
6.45223875733e-06
5.58099885394e-06
4.20814382905e-06
8.48749094296e-06
5.32959553383e-06
1.15096203281e-05
1.20414216543e-05
1.10114216994e-05
1.01879421316e-05
1.10891604155e-05
1.05733983086e-05
1.14675055225e-05
9.41512714023e-06
1.07778406709e-05
1.10355455734e-05
1.16445577967e-05
1.10271959587e-05
8.36998554867e-06
9.24002644061e-06
8.66769924983e-06
8.56085383094e-06
1.06470871952e-05
1.06020714476e-05
1.05950821775e-05
1.02796726772e-05
6.37600490411e-06
7.00286985166e-06
8.94882642462e-06
8.31893201807e-06
5.39158637402e-06
6.6391219842e-06
5.66818932545e-06
4.37634998825e-06
4.49066079971e-06
1.05480410835e-06
1.03000680621e-06
2.78618090048e-06
4.86016067901e-07
6.66867718811e-07
5.72829066426e-06
8.11474310835e-06
9.92014501812e-06
1.00158523631e-05
9.54780056345e-06
9.08280658475e-06
8.84482836408e-06
1.33332920664e-05
1.29124194301e-05
3.14851708388e-06
3.53626501671e-06
3.3706029787e-06
3.59755170324e-06
1.72624982939e-06
6.97644783883e-07
2.76268440583e-08
2.5317539705e-06
1.30100620007e-05
1.01392048842e-05
1.10689079882e-05
1.116375648e-05
1.05316287489e-05
1.00063504587e-05
8.99750414112e-06
9.97513749644e-06
1.12509844872e-05
1.09306414981e-05
1.25288632866e-05
1.60706690246e-07
8.4842118354e-06
1.29294503187e-05
9.16807612698e-07
